{
  "fcc38de3706e27ac41003a58b79e5791d31346b2f47de9367458161efa2928c6": true,
  "c1c8af4ae668f0d587205dd026a3566dd6d0adc3f8986fb8cacd2858980a17bd": true,
  "1248c62c9f70655d1ce64a62df463bb7bd0faacf1b730e1f6e5ddf445b9efff8": true,
  "d410209e30e6495f831ab39de6c8641d6d733a8377b03a7036a81a1384be5697": true,
  "630eb672167efc72e545c49262aae51dd4824b4cb98727c3b117c71884cf13c3": true,
  "cc4269a65868c3b73ecbe12be88aaabb81d53a47c93734469f158215be493df5": true,
  "455929ec50123b53a34f5b9619f8efd0b1501122ffe702f4a92101c19e047d15": true,
  "2634eff322aac8bac27120ef62bae7d8750925e8e05cfb60c0c63d171bb52a32": true,
  "5fe9bff3c3f4cb88361ac823b026de2570b202143f76e06cd58674ec11eafa61": true,
  "4672e27c6d305feee26e340d82dc211b74a72a477c72321da8ec234392f24817": true,
  "9ee10db1c399042216e9556d70d8db501099f73cc42b0bec5a6c6c4acb825082": true,
  "3f87d7c93c5fcaa60d817f300f3bb0cc886c18b25e2c1e7c6b8f29e73d3794f4": true,
  "8f6dd359e437cd5dcd4348369a18eeeb00faf16c4b0e5e291976104480569548": true,
  "be3c385c63371129b5c6933af7c296c7f502f0647de6de87f5745807c6e9d45f": true,
  "a8b3dde49ba406fcbf5df22ec5eee964c88bce9ba09b1740c71efc963beabd95": true,
  "36065f2db2bd53e7b904c55ed696f6c28295f691cf5c1674bbc72cec241d7d91": true,
  "cd313eff5200f6c03f3931964c3d425ac29f3b6fe2b0d4096820e4b64efb1a63": true,
  "4ae3a1a6c23ccda80644c6045893348800dc8c651e05f3fb4f30d7e66d1ab97f": true,
  "d04c55903c6c4b51ad2b9c7d292cde43577b637e8b9353b3d58ed20d70177873": true,
  "8d6e86cf2c247e7548aeaac29edefb402b6b52876fdbf96ccebab8f9de28007f": true,
  "3acd25290508724d3c225459798dc867541b8dcaad83a41f7dc72b3143ad3d7d": true,
  "68f167b02d25f4007e8deaa734d4f55c184780faa1b6e2cdee6472bc06217b9c": true,
  "9c1595dc9df845c375b99fe5bac967b0eebcb78fa0c924c20caf59df2ea4e892": true,
  "d79fed8ec8b551f509169f59ff837dfdf6b7166dcf07da15b0c67017da28a468": true,
  "cc44acc25dee0f055659441477cb176e831fed4fb3e35dd1c2a31bfeb36076f0": true,
  "4d5d33e617c0af78ca9fd4af121a88a7548671cd8c6f87793ffa8af9c55d59f2": true,
  "cd66277c1fd58bf26b928c3f117ac4b1e34df629b36c44512f775c85e55c9451": true,
  "b14d24878146de3eb02c2639290364c329249d2c9941be95728b65bffb022c5f": true,
  "4a11ea8095b0aa71fd0c1d835bfe857a219ca4f995a505ff662d3e18046d7129": true,
  "4c0a610d069530ada3b7e643e0bd7779bfd186862f656c36a698859bd5c96a2a": true,
  "388e348f7c24b109d30c1efcdd4183778cdbf1b96058fc2f806d364349fb3451": true,
  "8eda9cb589eb1ace725419030291541c2d1ba90e1ceb56d83a33e1aa96d15a32": true,
  "f7d12779b9b8bb237f12f857c3b41f5d52271177e58cec84d6196ce0d41d6bc5": true,
  "b474ece4b1e4865d05416a6dd9c51f43a3026a9765e8eb612d23350d25d1d946": true,
  "63ad822c668231d35c1225bc09d14cee2d70316a3a67cf6503379b8c18f24952": true,
  "9f79080ca371a7d394595c3a702da2932d965eb4d7bd6738b6a254064f2f5255": true,
  "eade7975f2c44a3bc21994383f6a6305f73a60c4740ae6015514d464ec462208": true,
  "64e9eaec9410da96029750c8123eaedf7b50e17396e3a42dd85ec48b24f9ff6d": true,
  "9d837decf7ecbd0475b4f564979eb3d94cb20c92187bbd87a508a2ec577a8968": true,
  "2042cf509bbe0f514a04fe409cfb5cf61bad51ddd9d90af2d151b5d990339058": true,
  "b125caa8ffe653b13af9eef8738bb888a5c3b20ca2cdb31222fb5307a5675bac": true,
  "2722545eb0e95fb12191fa78b3c7f8ff5e4f39a19fd9f4638b611aea05b0ccbd": true,
  "f5f8f77e9d217a31297bf8ae91061fe9387352121c41c016840b50dd5d860df5": true,
  "38cad4b08926899e1272c8e181494b8bac0a9b1ec885a2566ee76ead79390b28": true,
  "1c38ae425a22f732acc2ddbf5c6ced5339b154c3c33e34e8810879e44d74b0f4": true,
  "52ad1c32724e7401c0c0dfefb00207c41826cc8c7e9e2cb6b22df0b6427bbd49": true
}